<svg width="24" height="24" viewBox="0 0 24 24" fill="none" xmlns="http://www.w3.org/2000/svg">
<path d="M20 12V5.74853C20 5.5894 19.9368 5.43679 19.8243 5.32426L16.6757 2.17574C16.5632 2.06321 16.4106 2 16.2515 2H4.6C4.26863 2 4 2.26863 4 2.6V21.4C4 21.7314 4.26863 22 4.6 22H11" stroke="#FB5607" stroke-width="1.5" stroke-linecap="round" stroke-linejoin="round"/>
<path d="M8 14H11M8 10H16H8ZM8 6H12H8Z" stroke="#FB5607" stroke-width="1.5" stroke-linecap="round" stroke-linejoin="round"/>
<path d="M16 5.4V2.35355C16 2.15829 16.1583 2 16.3536 2C16.4473 2 16.5372 2.03725 16.6036 2.10355L19.8964 5.39645C19.9628 5.46275 20 5.55268 20 5.64645C20 5.84171 19.8417 6 19.6464 6H16.6C16.2686 6 16 5.73137 16 5.4Z" fill="#FB5607" stroke="#FB5607" stroke-width="1.5" stroke-linecap="round" stroke-linejoin="round"/>
<path d="M17.9542 16.9398L19.54 18.5256M17.9542 16.9398L18.9542 15.9398C19.3921 15.5019 20.1021 15.5019 20.54 15.9398C20.9779 16.3777 20.9779 17.0877 20.54 17.5256L19.54 18.5256L17.9542 16.9398ZM17.9542 16.9398L14.9631 19.9309C14.8132 20.0808 14.7148 20.2745 14.6822 20.4839L14.4395 22.0403L15.9958 21.7977C16.2053 21.765 16.3989 21.6666 16.5488 21.5167L19.54 18.5256L17.9542 16.9398Z" stroke="#FB5607" stroke-width="1.5" stroke-linecap="round" stroke-linejoin="round"/>
</svg>
